Manipulacíon de datos en R II
…
## Uno ambos dataframes usando left_join()
# Manera tradicional
nba_full <- left_join(x = nba_u10,
                      y = nba_teams_rec,
                      by = c("home_team" = "team"))
# Con pipeline
nba_full <- nba_u10 %>% 
  left_join(nba_teams_rec, by = c("home_team" = "team"))

nba_full
```

```
## # A tibble: 12,240 x 5
##    home_team             visitor_team           pts_home pts_away conference
##    <chr>                 <chr>                     <dbl>    <dbl> <chr>     
##  1 Orlando Magic         Charlotte Hornets           120      117 east      
##  2 Washington Wizards    Detroit Pistons              99       96 east      
##  3 Memphis Grizzlies     Atlanta Hawks               116      117 west      
##  4 Indiana Pacers        Philadelphia 76ers          107      113 east      
##  5 Toronto Raptors       Miami Heat                  105      117 east      
##  6 New York Knicks       Cleveland Cavaliers         119       83 east      
##  7 Boston Celtics        Brooklyn Nets                89      113 east      
##  8 New Orleans Pelicans  Milwaukee Bucks             127      113 west      
##  9 Oklahoma City Thunder Chicago Bulls               103      105 west      
## 10 Denver Nuggets        Portland Trail Blazers      129       96 west      
## # ... with 12,230 more rows
```
…
.codefont[

```r
nba_data %>%
  mutate(home_team_wins = case_when(
    home_team_wins == 1 ~ "Ganados",
    TRUE ~ "Perdidos"
  )) %>% 
  filter(home_team == "Chicago Bulls") %>% 
  group_by(season, home_team_wins) %>% 
  summarise(n = n())
```

```
## # A tibble: 36 x 3
## # Groups:   season [18]
##    season home_team_wins     n
##     <dbl> <chr>          <int>
##  1   2003 Ganados           14
##  2   2003 Perdidos          31
##  3   2004 Ganados           30
##  4   2004 Perdidos          16
##  5   2005 Ganados           25
##  6   2005 Perdidos          23
##  7   2006 Ganados           38
##  8   2006 Perdidos          13
##  9   2007 Ganados           24
## 10   2007 Perdidos          21
## # ... with 26 more rows
```
…
