Estadística Inferencial
…
# Crear data poblacional
datos_votos <- sample(x = c("Partido A", "Partido B", "Partido C"),
                      size = 3000000, 
                      replace = TRUE, 
                      prob = c(.25, .35, .4)
)

datos_votos <- tibble(voto = datos_votos)

datos_votos
```

```
## # A tibble: 3,000,000 x 1
##    voto     
##    <chr>    
##  1 Partido C
##  2 Partido B
##  3 Partido A
##  4 Partido A
##  5 Partido B
##  6 Partido B
##  7 Partido A
##  8 Partido A
##  9 Partido B
## 10 Partido B
## # ... with 2,999,990 more rows
```
…
