Manipulación de datos en R
…
.codefontchico[

```r
data_bulls <- filter(nba_data,
                     home_team == "Chicago Bulls" | visitor_team == "Chicago Bulls")
data_bulls <- drop_na(data_bulls)
data_bulls <- select(data_bulls, 
                     game_date_est, home_team, visitor_team, pts_home, pts_away)
print(data_bulls)
```

```
## # A tibble: 1,563 x 5
##    game_date_est home_team              visitor_team        pts_home pts_away
##    <date>        <chr>                  <chr>                  <dbl>    <dbl>
##  1 2020-12-18    Oklahoma City Thunder  Chicago Bulls            103      105
##  2 2020-12-16    Oklahoma City Thunder  Chicago Bulls            103      124
##  3 2020-12-13    Chicago Bulls          Houston Rockets          104       91
##  4 2020-12-11    Chicago Bulls          Houston Rockets          104      125
##  5 2020-03-10    Chicago Bulls          Cleveland Cavaliers      108      103
##  6 2020-03-08    Brooklyn Nets          Chicago Bulls            110      107
##  7 2020-03-06    Chicago Bulls          Indiana Pacers           102      108
##  8 2020-03-04    Minnesota Timberwolves Chicago Bulls            115      108
##  9 2020-03-02    Chicago Bulls          Dallas Mavericks         109      107
## 10 2020-02-29    New York Knicks        Chicago Bulls            125      115
## # ... with 1,553 more rows
```
…
.codefont[

```r
data_bulls_pip <- nba_data %>% 
  filter(home_team == "Chicago Bulls" | visitor_team == "Chicago Bulls") %>% 
  drop_na() %>% 
  select(game_date_est, home_team, visitor_team, pts_home, pts_away)
print(data_bulls)
```

```
## # A tibble: 1,563 x 5
##    game_date_est home_team              visitor_team        pts_home pts_away
##    <date>        <chr>                  <chr>                  <dbl>    <dbl>
##  1 2020-12-18    Oklahoma City Thunder  Chicago Bulls            103      105
##  2 2020-12-16    Oklahoma City Thunder  Chicago Bulls            103      124
##  3 2020-12-13    Chicago Bulls          Houston Rockets          104       91
##  4 2020-12-11    Chicago Bulls          Houston Rockets          104      125
##  5 2020-03-10    Chicago Bulls          Cleveland Cavaliers      108      103
##  6 2020-03-08    Brooklyn Nets          Chicago Bulls            110      107
##  7 2020-03-06    Chicago Bulls          Indiana Pacers           102      108
##  8 2020-03-04    Minnesota Timberwolves Chicago Bulls            115      108
##  9 2020-03-02    Chicago Bulls          Dallas Mavericks         109      107
## 10 2020-02-29    New York Knicks        Chicago Bulls            125      115
## # ... with 1,553 more rows
```
…
Para ordenar datos (numérica o alfabéticamente) podemos usar la función `arrange()`. Por defecto, `arrange()` ordena ascendentemente, con `desc()` podemos cambiar eso.

.codefont[

```r
# Con el pipeline, seleccionemos algunas variables y luego ordenemos
nba_data %>% 
  filter(home_team == "Chicago Bulls" | 
           visitor_team == "Chicago Bulls") %>% 
  select(game_date_est, home_team, visitor_team, pts_home, pts_away) %>% 
  arrange(pts_home)
```

```
## # A tibble: 1,570 x 5
##    game_date_est home_team            visitor_team    pts_home pts_away
##    <date>        <chr>                <chr>              <dbl>    <dbl>
##  1 2012-03-19    Orlando Magic        Chicago Bulls         59       85
##  2 2003-10-08    Indiana Pacers       Chicago Bulls         62       58
##  3 2012-02-10    Charlotte Hornets    Chicago Bulls         64       95
##  4 2013-05-13    Chicago Bulls        Miami Heat            65       88
##  5 2006-10-31    Miami Heat           Chicago Bulls         66      108
##  6 2003-11-03    Chicago Bulls        Houston Rockets       66       98
##  7 2015-04-30    Milwaukee Bucks      Chicago Bulls         66      120
##  8 2013-02-21    Chicago Bulls        Miami Heat            67       86
##  9 2012-02-08    New Orleans Pelicans Chicago Bulls         67       90
## 10 2006-10-19    San Antonio Spurs    Chicago Bulls         67       99
## # ... with 1,560 more rows
```
…
La función `distinct()` filtra las observaciones unicas (puede especificarse una variable sola, ver argumento `.keep_all`), la función `pull()` toma una columna de un dataframe y la extrae como vector. La combinación de ambas funciones es muy útil cuando queremos extraer por ejemplo valores únicos de una variable.

.codefont[

```r
# Solo con distinct() devuelve un dataframe
nba_data_2 <- nba_data %>% 
  distinct(home_team)
nba_data_2
```

```
## # A tibble: 30 x 1
##    home_team            
##    <chr>                
##  1 Orlando Magic        
##  2 Washington Wizards   
##  3 Memphis Grizzlies    
##  4 Indiana Pacers       
##  5 Toronto Raptors      
##  6 New York Knicks      
##  7 Boston Celtics       
##  8 New Orleans Pelicans 
##  9 Oklahoma City Thunder
## 10 Denver Nuggets       
## # ... with 20 more rows
```
…
```r
nba_data %>% 
  drop_na() %>%
  filter(home_team == "Chicago Bulls" | home_team == "New York Knicks") %>% 
  group_by(season, home_team) %>% 
  summarise(media = mean(pts_home)) 
```

```
## `summarise()` has grouped output by 'season'. You can override using the
## `.groups` argument.
```

```
## # A tibble: 36 x 3
## # Groups:   season [18]
##    season home_team       media
##     <dbl> <chr>           <dbl>
##  1   2003 Chicago Bulls    88.9
##  2   2003 New York Knicks  93.1
##  3   2004 Chicago Bulls    96.2
##  4   2004 New York Knicks  98.7
##  5   2005 Chicago Bulls    98.3
##  6   2005 New York Knicks  98.0
##  7   2006 Chicago Bulls    98.8
##  8   2006 New York Knicks 101. 
##  9   2007 Chicago Bulls    98.6
## 10   2007 New York Knicks  97  
## # ... with 26 more rows
```
…
---
## Resumir datos de multiples variables

Con `summarise()` y `across()` podemos especificar un tipo de resumen para un conjunto de variables. Por ejemplo, calcular la media para el equipo local de todas las variables que terminan con "pct_home".

.codefont[

```r
nba_data %>%
  group_by(home_team) %>%
  summarise(across(ends_with("pct_home"), ~ mean(.x, na.rm = TRUE)))
```

```
## # A tibble: 30 x 4
##    home_team             fg_pct_home ft_pct_home fg3_pct_home
##    <chr>                       <dbl>       <dbl>        <dbl>
##  1 Atlanta Hawks               0.458       0.761        0.349
##  2 Boston Celtics              0.463       0.773        0.355
##  3 Brooklyn Nets               0.447       0.757        0.344
##  4 Charlotte Hornets           0.443       0.752        0.347
##  5 Chicago Bulls               0.442       0.759        0.356
##  6 Cleveland Cavaliers         0.456       0.744        0.358
##  7 Dallas Mavericks            0.463       0.787        0.364
##  8 Denver Nuggets              0.469       0.749        0.350
##  9 Detroit Pistons             0.453       0.734        0.345
## 10 Golden State Warriors       0.474       0.766        0.374
## # ... with 20 more rows
```
…
---
## Resumir datos de multiples variables

Con `across()` (ver [across](https://dplyr.tidyverse.org/reference/across.html)) es posible especificar conjuntos de variables utilizando helpers como start_with() o ends_with(), con vectores de variables, utilizando operadores o condicionales

.codefont[

```r
nba_data %>%
  group_by(home_team) %>%
  summarise(across(c("pts_home", "ast_home"), ~ mean(.x, na.rm = TRUE)))
```

```
## # A tibble: 30 x 3
##    home_team             pts_home ast_home
##    <chr>                    <dbl>    <dbl>
##  1 Atlanta Hawks            101.      23.6
##  2 Boston Celtics           101.      23.5
##  3 Brooklyn Nets             99.1     22.4
##  4 Charlotte Hornets         99.3     22.0
##  5 Chicago Bulls             99.1     22.9
##  6 Cleveland Cavaliers      101.      22.6
##  7 Dallas Mavericks         104.      22.1
##  8 Denver Nuggets           108.      25.3
##  9 Detroit Pistons           99.0     22.5
## 10 Golden State Warriors    109.      25.8
## # ... with 20 more rows
```
…
---
## Resumir datos

Con `where()` podemos establecer condiciones, como por ejemplo resumir todas las variables numéricas

.codefont[

```r
nba_data %>%
  group_by(home_team) %>%
  summarise(across(where(is.numeric), ~ mean(.x, na.rm = TRUE)))
```

```
## # A tibble: 30 x 20
##    home_team   game_id home_team_id visitor_team_id season team_id_home pts_home
##    <chr>         <dbl>        <dbl>           <dbl>  <dbl>        <dbl>    <dbl>
##  1 Atlanta Ha~  2.17e7   1610612737     1610612752.  2011.   1610612737    101. 
##  2 Boston Cel~  2.27e7   1610612738     1610612752.  2011.   1610612738    101. 
##  3 Brooklyn N~  2.13e7   1610612751     1610612751.  2011.   1610612751     99.1
##  4 Charlotte ~  2.06e7   1610612766     1610612751.  2011.   1610612766     99.3
##  5 Chicago Bu~  2.13e7   1610612741     1610612752.  2011.   1610612741     99.1
##  6 Cleveland ~  2.22e7   1610612739     1610612752.  2011.   1610612739    101. 
##  7 Dallas Mav~  2.17e7   1610612742     1610612752.  2011.   1610612742    104. 
##  8 Denver Nug~  2.18e7   1610612743     1610612752.  2011.   1610612743    108. 
##  9 Detroit Pi~  2.17e7   1610612765     1610612751.  2010.   1610612765     99.0
## 10 Golden Sta~  2.23e7   1610612744     1610612752.  2011.   1610612744    109. 
## # ... with 20 more rows, and 13 more variables: fg_pct_home <dbl>,
## #   ft_pct_home <dbl>, fg3_pct_home <dbl>, ast_home <dbl>, reb_home <dbl>,
## #   team_id_away <dbl>, pts_away <dbl>, fg_pct_away <dbl>, ft_pct_away <dbl>,
## #   fg3_pct_away <dbl>, ast_away <dbl>, reb_away <dbl>, home_team_wins <dbl>
```
…
