Programación avanzada
…
```
## <list_of<
##   tbl_df<
##     country  : factor<39935>
##     continent: factor<be586>
##     year     : integer
##     lifeExp  : double
##     pop      : integer
##     gdpPercap: double
##     named    : logical
##   >
## >[5]>
## $Africa
## # A tibble: 624 x 7
##    country continent  year lifeExp      pop gdpPercap named
##    <fct>   <fct>     <int>   <dbl>    <int>     <dbl> <lgl>
##  1 Algeria Africa     1952    43.1  9279525     2449. TRUE 
##  2 Algeria Africa     1957    45.7 10270856     3014. TRUE 
##  3 Algeria Africa     1962    48.3 11000948     2551. TRUE 
##  4 Algeria Africa     1967    51.4 12760499     3247. TRUE 
##  5 Algeria Africa     1972    54.5 14760787     4183. TRUE 
##  6 Algeria Africa     1977    58.0 17152804     4910. TRUE 
##  7 Algeria Africa     1982    61.4 20033753     5745. TRUE 
##  8 Algeria Africa     1987    65.8 23254956     5681. TRUE 
##  9 Algeria Africa     1992    67.7 26298373     5023. TRUE 
## 10 Algeria Africa     1997    69.2 29072015     4797. TRUE 
## # ... with 614 more rows
## 
## $Americas
## # A tibble: 300 x 7
##    country   continent  year lifeExp      pop gdpPercap named
##    <fct>     <fct>     <int>   <dbl>    <int>     <dbl> <lgl>
##  1 Argentina Americas   1952    62.5 17876956     5911. TRUE 
##  2 Argentina Americas   1957    64.4 19610538     6857. TRUE 
##  3 Argentina Americas   1962    65.1 21283783     7133. TRUE 
##  4 Argentina Americas   1967    65.6 22934225     8053. TRUE 
##  5 Argentina Americas   1972    67.1 24779799     9443. TRUE 
##  6 Argentina Americas   1977    68.5 26983828    10079. TRUE 
##  7 Argentina Americas   1982    69.9 29341374     8998. TRUE 
##  8 Argentina Americas   1987    70.8 31620918     9140. TRUE 
##  9 Argentina Americas   1992    71.9 33958947     9308. TRUE 
## 10 Argentina Americas   1997    73.3 36203463    10967. TRUE 
## # ... with 290 more rows
## 
## $Asia
## # A tibble: 396 x 7
##    country     continent  year lifeExp      pop gdpPercap named
##    <fct>       <fct>     <int>   <dbl>    <int>     <dbl> <lgl>
##  1 Afghanistan Asia       1952    28.8  8425333      779. TRUE 
##  2 Afghanistan Asia       1957    30.3  9240934      821. TRUE 
##  3 Afghanistan Asia       1962    32.0 10267083      853. TRUE 
##  4 Afghanistan Asia       1967    34.0 11537966      836. TRUE 
##  5 Afghanistan Asia       1972    36.1 13079460      740. TRUE 
##  6 Afghanistan Asia       1977    38.4 14880372      786. TRUE 
##  7 Afghanistan Asia       1982    39.9 12881816      978. TRUE 
##  8 Afghanistan Asia       1987    40.8 13867957      852. TRUE 
##  9 Afghanistan Asia       1992    41.7 16317921      649. TRUE 
## 10 Afghanistan Asia       1997    41.8 22227415      635. TRUE 
## # ... with 386 more rows
## 
## $Europe
## # A tibble: 360 x 7
##    country continent  year lifeExp     pop gdpPercap named
##    <fct>   <fct>     <int>   <dbl>   <int>     <dbl> <lgl>
##  1 Albania Europe     1952    55.2 1282697     1601. TRUE 
##  2 Albania Europe     1957    59.3 1476505     1942. TRUE 
##  3 Albania Europe     1962    64.8 1728137     2313. TRUE 
##  4 Albania Europe     1967    66.2 1984060     2760. TRUE 
##  5 Albania Europe     1972    67.7 2263554     3313. TRUE 
##  6 Albania Europe     1977    68.9 2509048     3533. TRUE 
##  7 Albania Europe     1982    70.4 2780097     3631. TRUE 
##  8 Albania Europe     1987    72   3075321     3739. TRUE 
##  9 Albania Europe     1992    71.6 3326498     2497. TRUE 
## 10 Albania Europe     1997    73.0 3428038     3193. TRUE 
## # ... with 350 more rows
## 
## $Oceania
## # A tibble: 24 x 7
##    country   continent  year lifeExp      pop gdpPercap named
##    <fct>     <fct>     <int>   <dbl>    <int>     <dbl> <lgl>
##  1 Australia Oceania    1952    69.1  8691212    10040. TRUE 
##  2 Australia Oceania    1957    70.3  9712569    10950. TRUE 
##  3 Australia Oceania    1962    70.9 10794968    12217. TRUE 
##  4 Australia Oceania    1967    71.1 11872264    14526. TRUE 
##  5 Australia Oceania    1972    71.9 13177000    16789. TRUE 
##  6 Australia Oceania    1977    73.5 14074100    18334. TRUE 
##  7 Australia Oceania    1982    74.7 15184200    19477. TRUE 
##  8 Australia Oceania    1987    76.3 16257249    21889. TRUE 
##  9 Australia Oceania    1992    77.6 17481977    23425. TRUE 
## 10 Australia Oceania    1997    78.8 18565243    26998. TRUE 
## # ... with 14 more rows
```
…
---

## De listas de dataframes a dataframes

Cuando utilizamos una lista de dataframes podemos tanto unir todos los dataframes

```r
# Unir dataframes desde una lista
df_gapminder <- bind_rows(lista_df_2)
as_tibble(df_gapminder)
```

```
## # A tibble: 1,704 x 8
##        X country continent  year lifeExp      pop gdpPercap named
##    <int> <chr>   <chr>     <int>   <dbl>    <int>     <dbl> <lgl>
##  1     1 Algeria Africa     1952    43.1  9279525     2449. TRUE 
##  2     2 Algeria Africa     1957    45.7 10270856     3014. TRUE 
##  3     3 Algeria Africa     1962    48.3 11000948     2551. TRUE 
##  4     4 Algeria Africa     1967    51.4 12760499     3247. TRUE 
##  5     5 Algeria Africa     1972    54.5 14760787     4183. TRUE 
##  6     6 Algeria Africa     1977    58.0 17152804     4910. TRUE 
##  7     7 Algeria Africa     1982    61.4 20033753     5745. TRUE 
##  8     8 Algeria Africa     1987    65.8 23254956     5681. TRUE 
##  9     9 Algeria Africa     1992    67.7 26298373     5023. TRUE 
## 10    10 Algeria Africa     1997    69.2 29072015     4797. TRUE 
## # ... with 1,694 more rows
```
…
